{
  "headingTags": [
    {
      "tag": "h1",
      "content": "Heading 1"
    },
    {
      "tag": "h2",
      "content": "Heading 2"
    },
    {
      "tag": "h3",
      "content": "Heading 3"
    },
    {
      "tag": "h4",
      "content": "Heading 4"
    },
    {
      "tag": "h5",
      "content": "Heading 5"
    },
    {
      "tag": "h6",
      "content": "Heading 6"
    }
  ],
  "headingStyleTags": [
    {
      "tag": "p",
      "content": "Text size adjust h1",
      "attributes": [
        {
          "title": "class",
          "value": "h1"
        }
      ]
    },
    {
      "tag": "p",
      "content": "Text size adjust h2",
      "attributes": [
        {
          "title": "class",
          "value": "h2"
        }
      ]
    },
    {
      "tag": "p",
      "content": "Text size adjust h3",
      "attributes": [
        {
          "title": "class",
          "value": "h3"
        }
      ]
    },
    {
      "tag": "p",
      "content": "Text size adjust h4",
      "attributes": [
        {
          "title": "class",
          "value": "h4"
        }
      ]
    },
    {
      "tag": "p",
      "content": "Text size adjust h5",
      "attributes": [
        {
          "title": "class",
          "value": "h5"
        }
      ]
    },
    {
      "tag": "p",
      "content": "Text size adjust h6",
      "attributes": [
        {
          "title": "class",
          "value": "h6"
        }
      ]
    }
  ]
}