[
  {
    "title": "Get Started",
    "link": "/get-started"
  },
  {
    "title": "Headings",
    "link": "/headings"
  },
  {
    "title": "Colors",
    "link": "/colors"
  },
  {
    "title": "Lists",
    "link": "/lists"
  },
  {
    "title": "Text Alignment",
    "link": "/text-alignment"
  },
  {
    "title": "Buttons",
    "link": "/buttons"
  },
  {
    "title": "Alert",
    "link": "/alert"
  },
  {
    "title": "Card",
    "link": "/card"
  },
  {
    "title": "Media Object",
    "link": "/media-object"
  },
  {
    "title": "Grid",
    "link": "/grid"
  },
  {
    "title": "Table",
    "link": "/table"
  },
  {
    "title": "Form",
    "link": "/form"
  },
  {
    "title": "Tabs",
    "link": "/tabs"
  },
  {
    "title": "Pagination",
    "link": "/pagination"
  },
  {
    "title": "Bzi Icon",
    "link": "/bzi-icon"
  },
  {
    "title": "Responsive Image",
    "link": "/responsive-image"
  },
  {
    "title": "Plugins",
    "link": "/plugins",
    "hasChild": true,
    "child": [
      {
        "title": "Slick Carousel",
        "link": "/plugins/slick-carousel"
      }
    ]
  },
  {
    "title": "Poke API",
    "link": "/poke-api"
  }
]